<?xml version="1.0" encoding="utf-8"?>
<!-- Generator: Adobe Illustrator 25.0.1, SVG Export Plug-In . SVG Version: 6.00 Build 0)  -->
<svg version="1.1" id="Layer_1" xmlns="http://www.w3.org/2000/svg" xmlns:xlink="http://www.w3.org/1999/xlink" x="0px" y="0px"
	 viewBox="0 0 15 14" style="enable-background:new 0 0 15 14;" xml:space="preserve">
<style type="text/css">
	.st0{fill:#4E64E6;}
</style>
<path class="st0" d="M7.5,0.3c-3.7,0-6.7,3-6.7,6.7c0,3.7,3,6.7,6.7,6.7c3.7,0,6.7-3,6.7-6.7C14.2,3.3,11.2,0.3,7.5,0.3z M9.9,4.6
	c0.7,0,1.3,0.6,1.3,1.3c0,0.7-0.6,1.3-1.3,1.3c-0.7,0-1.3-0.6-1.3-1.3C8.6,5.1,9.2,4.6,9.9,4.6z M5.9,3.5c0.9,0,1.6,0.7,1.6,1.6
	S6.8,6.7,5.9,6.7C5,6.7,4.3,5.9,4.3,5.1C4.3,4.2,5,3.5,5.9,3.5z M5.9,9.6v2.5C4.3,11.6,3,10.4,2.5,8.8C3.2,8,4.9,7.7,5.9,7.7
	c0.4,0,0.8,0.1,1.3,0.1C6.1,8.4,5.9,9.2,5.9,9.6z M7.5,12.3c-0.2,0-0.4,0-0.5,0V9.6c0-0.9,2-1.4,2.9-1.4c0.7,0,1.9,0.3,2.6,0.8
	C11.7,10.9,9.8,12.3,7.5,12.3z"/>
</svg>
