<svg width="38" height="38" viewBox="0 0 38 38" fill="none" xmlns="http://www.w3.org/2000/svg">
<path fill-rule="evenodd" clip-rule="evenodd" d="M33.6666 37.3332C31.6416 37.3332 30 35.6915 30 33.6665C30 31.6415 31.6416 29.9998 33.6666 29.9998C35.6917 29.9998 37.3333 31.6415 37.3333 33.6665C37.3333 35.6915 35.6917 37.3332 33.6666 37.3332ZM33.6666 22.6665C31.6416 22.6665 30 21.0249 30 18.9998C30 16.9748 31.6416 15.3332 33.6666 15.3332C35.6917 15.3332 37.3333 16.9748 37.3333 18.9998C37.3333 21.0249 35.6917 22.6665 33.6666 22.6665ZM33.6666 7.99984C31.6416 7.99984 30 6.35821 30 4.33317C30 2.30813 31.6416 0.666504 33.6666 0.666504C35.6917 0.666504 37.3333 2.30813 37.3333 4.33317C37.3333 6.35821 35.6917 7.99984 33.6666 7.99984ZM19 37.3332C16.9749 37.3332 15.3333 35.6915 15.3333 33.6665C15.3333 31.6415 16.9749 29.9998 19 29.9998C21.025 29.9998 22.6666 31.6415 22.6666 33.6665C22.6666 35.6915 21.025 37.3332 19 37.3332ZM19 22.6665C16.9749 22.6665 15.3333 21.0249 15.3333 18.9998C15.3333 16.9748 16.9749 15.3332 19 15.3332C21.025 15.3332 22.6666 16.9748 22.6666 18.9998C22.6666 21.0249 21.025 22.6665 19 22.6665ZM19 7.99984C16.9749 7.99984 15.3333 6.35821 15.3333 4.33317C15.3333 2.30813 16.9749 0.666504 19 0.666504C21.025 0.666504 22.6666 2.30813 22.6666 4.33317C22.6666 6.35821 21.025 7.99984 19 7.99984ZM4.33329 37.3332C2.30825 37.3332 0.666626 35.6915 0.666626 33.6665C0.666626 31.6415 2.30825 29.9998 4.33329 29.9998C6.35834 29.9998 7.99996 31.6415 7.99996 33.6665C7.99996 35.6915 6.35834 37.3332 4.33329 37.3332ZM4.33329 22.6665C2.30825 22.6665 0.666626 21.0249 0.666626 18.9998C0.666626 16.9748 2.30825 15.3332 4.33329 15.3332C6.35834 15.3332 7.99996 16.9748 7.99996 18.9998C7.99996 21.0249 6.35834 22.6665 4.33329 22.6665ZM4.33329 7.99984C2.30825 7.99984 0.666626 6.35821 0.666626 4.33317C0.666626 2.30813 2.30825 0.666504 4.33329 0.666504C6.35834 0.666504 7.99996 2.30813 7.99996 4.33317C7.99996 6.35821 6.35834 7.99984 4.33329 7.99984Z" fill="white"/>
</svg>
